
#PV
select concat(substring(reg_date,1,15), '0') as dt,count(*) as num from access06_log where  reg_date>'2014-02' and reg_date<'2014-03' group by concat(substring(reg_date,1,15), '0');
select * from access06_log where substring(reg_date,1,15)='2014-02-06 13:1';
select * from access06_log where substring(reg_date,1,15)='2014-02-06 00:0';


#UU
select concat(substring(reg_date,1,15), '0') as dt,count(DISTINCT player_id) as num from access06_log where  reg_date>'2014-02' and reg_date<'2014-03' group by concat(substring(reg_date,1,15), '0');
select count(*) from 
(
select player_id as num from access06_log where substring(reg_date,1,15)='2014-02-06 00:0' group by player_id
) tb;