
//MutateRow: 100 puts, 50puts + 50 deletes
//Sum: 22 packages
17:17:51.137610 IP 10.112.21.44.45962 > vm27801077.60020: Flags [S], seq 3342766847, win 14600, options [mss 1460,sackOK,TS val 278175865 ecr 0,nop,wscale 7], length 0
17:17:51.137639 IP vm27801077.60020 > 10.112.21.44.45962: Flags [S.], seq 2317227046, ack 3342766848, win 14480, options [mss 1460,sackOK,TS val 431120713 ecr 278175865,nop,wscale 7], length 0
17:17:51.137958 IP 10.112.21.44.45962 > vm27801077.60020: Flags [.], ack 1, win 115, options [nop,nop,TS val 278175867 ecr 431120713], length 0
17:17:51.138107 IP 10.112.21.44.45962 > vm27801077.60020: Flags [P.], seq 1:7, ack 1, win 115, options [nop,nop,TS val 278175867 ecr 431120713], length 6
17:17:51.138115 IP vm27801077.60020 > 10.112.21.44.45962: Flags [.], ack 7, win 114, options [nop,nop,TS val 431120713 ecr 278175867], length 0
17:17:51.138209 IP 10.112.21.44.45962 > vm27801077.60020: Flags [P.], seq 7:81, ack 1, win 115, options [nop,nop,TS val 278175867 ecr 431120713], length 74
17:17:51.138215 IP vm27801077.60020 > 10.112.21.44.45962: Flags [.], ack 81, win 114, options [nop,nop,TS val 431120713 ecr 278175867], length 0
17:17:51.143489 IP 10.112.21.44.45962 > vm27801077.60020: Flags [.], seq 81:1529, ack 1, win 115, options [nop,nop,TS val 278175872 ecr 431120713], length 1448
17:17:51.143501 IP vm27801077.60020 > 10.112.21.44.45962: Flags [.], ack 1529, win 136, options [nop,nop,TS val 431120719 ecr 278175872], length 0
17:17:51.143542 IP 10.112.21.44.45962 > vm27801077.60020: Flags [.], seq 1529:2977, ack 1, win 115, options [nop,nop,TS val 278175872 ecr 431120713], length 1448
17:17:51.143551 IP vm27801077.60020 > 10.112.21.44.45962: Flags [.], ack 2977, win 159, options [nop,nop,TS val 431120719 ecr 278175872], length 0
17:17:51.143564 IP 10.112.21.44.45962 > vm27801077.60020: Flags [.], seq 2977:4425, ack 1, win 115, options [nop,nop,TS val 278175872 ecr 431120713], length 1448
17:17:51.143571 IP vm27801077.60020 > 10.112.21.44.45962: Flags [.], ack 4425, win 181, options [nop,nop,TS val 431120719 ecr 278175872], length 0
17:17:51.143584 IP 10.112.21.44.45962 > vm27801077.60020: Flags [.], seq 4425:5873, ack 1, win 115, options [nop,nop,TS val 278175872 ecr 431120713], length 1448
17:17:51.143594 IP 10.112.21.44.45962 > vm27801077.60020: Flags [P.], seq 5873:6055, ack 1, win 115, options [nop,nop,TS val 278175872 ecr 431120713], length 182
17:17:51.143594 IP vm27801077.60020 > 10.112.21.44.45962: Flags [.], ack 5873, win 204, options [nop,nop,TS val 431120719 ecr 278175872], length 0
17:17:51.143594 IP vm27801077.60020 > 10.112.21.44.45962: Flags [.], ack 6055, win 227, options [nop,nop,TS val 431120719 ecr 278175872], length 0
17:17:51.148565 IP vm27801077.60020 > 10.112.21.44.45962: Flags [P.], seq 1:11, ack 6055, win 227, options [nop,nop,TS val 431120724 ecr 278175872], length 10
17:17:51.148990 IP 10.112.21.44.45962 > vm27801077.60020: Flags [.], ack 11, win 115, options [nop,nop,TS val 278175878 ecr 431120724], length 0
17:17:51.161252 IP 10.112.21.44.45962 > vm27801077.60020: Flags [F.], seq 6055, ack 11, win 115, options [nop,nop,TS val 278175890 ecr 431120724], length 0
17:17:51.161386 IP vm27801077.60020 > 10.112.21.44.45962: Flags [F.], seq 11, ack 6056, win 227, options [nop,nop,TS val 431120737 ecr 278175890], length 0
17:17:51.161756 IP 10.112.21.44.45962 > vm27801077.60020: Flags [.], ack 12, win 115, options [nop,nop,TS val 278175891 ecr 431120737], length 0

//Put(Array): 100 puts
//Sum: 22 packages
17:23:26.324206 IP 10.112.21.44.46184 > vm27801077.60020: Flags [S], seq 2357190906, win 14600, options [mss 1460,sackOK,TS val 278511053 ecr 0,nop,wscale 7], length 0
17:23:26.324237 IP vm27801077.60020 > 10.112.21.44.46184: Flags [S.], seq 1933891099, ack 2357190907, win 14480, options [mss 1460,sackOK,TS val 431455899 ecr 278511053,nop,wscale 7], length 0
17:23:26.324752 IP 10.112.21.44.46184 > vm27801077.60020: Flags [.], ack 1, win 115, options [nop,nop,TS val 278511054 ecr 431455899], length 0
17:23:26.324904 IP 10.112.21.44.46184 > vm27801077.60020: Flags [P.], seq 1:7, ack 1, win 115, options [nop,nop,TS val 278511054 ecr 431455899], length 6
17:23:26.324911 IP vm27801077.60020 > 10.112.21.44.46184: Flags [.], ack 7, win 114, options [nop,nop,TS val 431455900 ecr 278511054], length 0
17:23:26.324996 IP 10.112.21.44.46184 > vm27801077.60020: Flags [P.], seq 7:81, ack 1, win 115, options [nop,nop,TS val 278511054 ecr 431455899], length 74
17:23:26.325001 IP vm27801077.60020 > 10.112.21.44.46184: Flags [.], ack 81, win 114, options [nop,nop,TS val 431455900 ecr 278511054], length 0
17:23:26.329379 IP 10.112.21.44.46184 > vm27801077.60020: Flags [.], seq 81:1529, ack 1, win 115, options [nop,nop,TS val 278511058 ecr 431455900], length 1448
17:23:26.329392 IP vm27801077.60020 > 10.112.21.44.46184: Flags [.], ack 1529, win 136, options [nop,nop,TS val 431455905 ecr 278511058], length 0
17:23:26.329411 IP 10.112.21.44.46184 > vm27801077.60020: Flags [.], seq 1529:2977, ack 1, win 115, options [nop,nop,TS val 278511058 ecr 431455900], length 1448
17:23:26.329422 IP vm27801077.60020 > 10.112.21.44.46184: Flags [.], ack 2977, win 159, options [nop,nop,TS val 431455905 ecr 278511058], length 0
17:23:26.329437 IP 10.112.21.44.46184 > vm27801077.60020: Flags [.], seq 2977:4425, ack 1, win 115, options [nop,nop,TS val 278511058 ecr 431455900], length 1448
17:23:26.329444 IP vm27801077.60020 > 10.112.21.44.46184: Flags [.], ack 4425, win 181, options [nop,nop,TS val 431455905 ecr 278511058], length 0
17:23:26.329459 IP 10.112.21.44.46184 > vm27801077.60020: Flags [.], seq 4425:5873, ack 1, win 115, options [nop,nop,TS val 278511058 ecr 431455900], length 1448
17:23:26.329468 IP vm27801077.60020 > 10.112.21.44.46184: Flags [.], ack 5873, win 204, options [nop,nop,TS val 431455905 ecr 278511058], length 0
17:23:26.329484 IP 10.112.21.44.46184 > vm27801077.60020: Flags [P.], seq 5873:6818, ack 1, win 115, options [nop,nop,TS val 278511058 ecr 431455900], length 945
17:23:26.329490 IP vm27801077.60020 > 10.112.21.44.46184: Flags [.], ack 6818, win 227, options [nop,nop,TS val 431455905 ecr 278511058], length 0
17:23:26.333666 IP vm27801077.60020 > 10.112.21.44.46184: Flags [P.], seq 1:619, ack 6818, win 227, options [nop,nop,TS val 431455909 ecr 278511058], length 618
17:23:26.334292 IP 10.112.21.44.46184 > vm27801077.60020: Flags [.], ack 619, win 124, options [nop,nop,TS val 278511063 ecr 431455909], length 0
17:23:26.350031 IP 10.112.21.44.46184 > vm27801077.60020: Flags [F.], seq 6818, ack 619, win 124, options [nop,nop,TS val 278511079 ecr 431455909], length 0
17:23:26.350131 IP vm27801077.60020 > 10.112.21.44.46184: Flags [F.], seq 619, ack 6819, win 227, options [nop,nop,TS val 431455925 ecr 278511079], length 0
17:23:26.350469 IP 10.112.21.44.46184 > vm27801077.60020: Flags [.], ack 620, win 124, options [nop,nop,TS val 278511079 ecr 431455925], length 0

//Batch(): 100 puts
//Sum: 22 packages
17:30:15.548343 IP 10.112.21.44.46453 > vm27801077.60020: Flags [S], seq 2668639818, win 14600, options [mss 1460,sackOK,TS val 278920277 ecr 0,nop,wscale 7], length 0
17:30:15.548364 IP vm27801077.60020 > 10.112.21.44.46453: Flags [S.], seq 297909067, ack 2668639819, win 14480, options [mss 1460,sackOK,TS val 431865123 ecr 278920277,nop,wscale 7], length 0
17:30:15.548751 IP 10.112.21.44.46453 > vm27801077.60020: Flags [.], ack 1, win 115, options [nop,nop,TS val 278920278 ecr 431865123], length 0
17:30:15.548919 IP 10.112.21.44.46453 > vm27801077.60020: Flags [P.], seq 1:7, ack 1, win 115, options [nop,nop,TS val 278920278 ecr 431865123], length 6
17:30:15.548928 IP vm27801077.60020 > 10.112.21.44.46453: Flags [.], ack 7, win 114, options [nop,nop,TS val 431865124 ecr 278920278], length 0
17:30:15.549082 IP 10.112.21.44.46453 > vm27801077.60020: Flags [P.], seq 7:81, ack 1, win 115, options [nop,nop,TS val 278920278 ecr 431865123], length 74
17:30:15.549088 IP vm27801077.60020 > 10.112.21.44.46453: Flags [.], ack 81, win 114, options [nop,nop,TS val 431865124 ecr 278920278], length 0
17:30:15.554008 IP 10.112.21.44.46453 > vm27801077.60020: Flags [.], seq 81:1529, ack 1, win 115, options [nop,nop,TS val 278920283 ecr 431865124], length 1448
17:30:15.554020 IP vm27801077.60020 > 10.112.21.44.46453: Flags [.], ack 1529, win 136, options [nop,nop,TS val 431865129 ecr 278920283], length 0
17:30:15.554067 IP 10.112.21.44.46453 > vm27801077.60020: Flags [.], seq 1529:2977, ack 1, win 115, options [nop,nop,TS val 278920283 ecr 431865124], length 1448
17:30:15.554080 IP vm27801077.60020 > 10.112.21.44.46453: Flags [.], ack 2977, win 159, options [nop,nop,TS val 431865129 ecr 278920283], length 0
17:30:15.554088 IP 10.112.21.44.46453 > vm27801077.60020: Flags [.], seq 2977:4425, ack 1, win 115, options [nop,nop,TS val 278920283 ecr 431865124], length 1448
17:30:15.554093 IP vm27801077.60020 > 10.112.21.44.46453: Flags [.], ack 4425, win 181, options [nop,nop,TS val 431865129 ecr 278920283], length 0
17:30:15.554098 IP 10.112.21.44.46453 > vm27801077.60020: Flags [.], seq 4425:5873, ack 1, win 115, options [nop,nop,TS val 278920283 ecr 431865124], length 1448
17:30:15.554104 IP vm27801077.60020 > 10.112.21.44.46453: Flags [.], ack 5873, win 204, options [nop,nop,TS val 431865129 ecr 278920283], length 0
17:30:15.554116 IP 10.112.21.44.46453 > vm27801077.60020: Flags [P.], seq 5873:6253, ack 1, win 115, options [nop,nop,TS val 278920283 ecr 431865124], length 380
17:30:15.554121 IP vm27801077.60020 > 10.112.21.44.46453: Flags [.], ack 6253, win 227, options [nop,nop,TS val 431865129 ecr 278920283], length 0
17:30:15.557964 IP vm27801077.60020 > 10.112.21.44.46453: Flags [P.], seq 1:613, ack 6253, win 227, options [nop,nop,TS val 431865133 ecr 278920283], length 612
17:30:15.558440 IP 10.112.21.44.46453 > vm27801077.60020: Flags [.], ack 613, win 124, options [nop,nop,TS val 278920287 ecr 431865133], length 0
17:30:16.075537 IP 10.112.21.44.46453 > vm27801077.60020: Flags [F.], seq 6253, ack 613, win 124, options [nop,nop,TS val 278920804 ecr 431865133], length 0
17:30:16.075702 IP vm27801077.60020 > 10.112.21.44.46453: Flags [F.], seq 613, ack 6254, win 227, options [nop,nop,TS val 431865651 ecr 278920804], length 0
17:30:16.081042 IP 10.112.21.44.46453 > vm27801077.60020: Flags [.], ack 614, win 124, options [nop,nop,TS val 278920810 ecr 431865651], length 0



//Continuse puts
//Sum 212 Packages, 50 puts: 112 , 200 puts 412 packages
17:27:34.451465 IP 10.112.21.44.46340 > vm27801077.60020: Flags [S], seq 447803603, win 14600, options [mss 1460,sackOK,TS val 278759179 ecr 0,nop,wscale 7], length 0
17:27:34.451485 IP vm27801077.60020 > 10.112.21.44.46340: Flags [S.], seq 4220761101, ack 447803604, win 14480, options [mss 1460,sackOK,TS val 431704027 ecr 278759179,nop,wscale 7], length 0
17:27:34.451846 IP 10.112.21.44.46340 > vm27801077.60020: Flags [.], ack 1, win 115, options [nop,nop,TS val 278759180 ecr 431704027], length 0
17:27:34.453090 IP 10.112.21.44.46340 > vm27801077.60020: Flags [P.], seq 1:7, ack 1, win 115, options [nop,nop,TS val 278759182 ecr 431704027], length 6
17:27:34.453129 IP vm27801077.60020 > 10.112.21.44.46340: Flags [.], ack 7, win 114, options [nop,nop,TS val 431704028 ecr 278759182], length 0
17:27:34.453153 IP 10.112.21.44.46340 > vm27801077.60020: Flags [P.], seq 7:81, ack 1, win 115, options [nop,nop,TS val 278759182 ecr 431704027], length 74
17:27:34.453164 IP vm27801077.60020 > 10.112.21.44.46340: Flags [.], ack 81, win 114, options [nop,nop,TS val 431704028 ecr 278759182], length 0
17:27:34.454435 IP 10.112.21.44.46340 > vm27801077.60020: Flags [P.], seq 81:224, ack 1, win 115, options [nop,nop,TS val 278759183 ecr 431704028], length 143
...
17:27:34.811650 IP vm27801077.60020 > 10.112.21.44.46340: Flags [P.], seq 1569:1585, ack 14327, win 501, options [nop,nop,TS val 431704387 ecr 278759538], length 16
17:27:34.812731 IP 10.112.21.44.46340 > vm27801077.60020: Flags [P.], seq 14327:14471, ack 1585, win 115, options [nop,nop,TS val 278759541 ecr 431704387], length 144
17:27:34.814835 IP vm27801077.60020 > 10.112.21.44.46340: Flags [P.], seq 1585:1601, ack 14471, win 501, options [nop,nop,TS val 431704390 ecr 278759541], length 16
17:27:34.816036 IP 10.112.21.44.46340 > vm27801077.60020: Flags [P.], seq 14471:14617, ack 1601, win 115, options [nop,nop,TS val 278759544 ecr 431704390], length 146
17:27:34.818201 IP vm27801077.60020 > 10.112.21.44.46340: Flags [P.], seq 1601:1617, ack 14617, win 501, options [nop,nop,TS val 431704393 ecr 278759544], length 16
17:27:34.825913 IP 10.112.21.44.46340 > vm27801077.60020: Flags [F.], seq 14617, ack 1617, win 115, options [nop,nop,TS val 278759554 ecr 431704393], length 0
17:27:34.826016 IP vm27801077.60020 > 10.112.21.44.46340: Flags [F.], seq 1617, ack 14618, win 501, options [nop,nop,TS val 431704401 ecr 278759554], length 0
17:27:34.826374 IP 10.112.21.44.46340 > vm27801077.60020: Flags [.], ack 1618, win 115, options [nop,nop,TS val 278759555 ecr 431704401], length 0
