１．gcc と　g++インストール
	yum install gcc
	yum install gcc-c++
２．　ｊｄｋのSymbolic Linkを作成
	cd /usr/local/java/
	ln -s jdk1.6.0_45 jdk
3．　以下は必要ない：
	＋＞cmecab　＜rsyncを使いますから必要のlibがありますー「/data/solr/solr-shop/solr/lib/」と「/data/solr/solr-item/solr/lib/」＞

	
	
	ーー
	rsync -avz longta@192.168.232.87:/data/solr/solr-item/solr/data /data/solr/solr-item/solr/
	67G     /data/solr/solr-item/
	8317944 /data/solr/solr-shop/
	ーー


[root@caduceus-solr09 mecab-naist-jdic-0.6.3b-20111013]# ./configure
checking for a BSD-compatible install... /usr/bin/install -c
checking whether build environment is sane... yes
checking for a thread-safe mkdir -p... /bin/mkdir -p
checking for gawk... gawk
checking whether make sets $(MAKE)... yes
checking whether ln -s works... yes
checking for mecab-config... /usr/local/bin/mecab-config
configure: creating ./config.status
config.status: creating Makefile


[root@caduceus-solr09 mecab-naist-jdic-0.6.3b-20111013]# /usr/local/libexec/mecab/mecab-dict-index -f euc-jp -t utf-8
reading ./unk.def ... 40
emitting double-array: 100% |###########################################|
./model.def is not found. skipped.
reading ./naist-jdic.csv ... 485863
emitting double-array: 100% |###########################################|
reading ./matrix.def ... 1396x1396
emitting matrix      : 100% |###########################################|

done!

/data/solr/solr-item
/data/solr/solr-shop


if [ "$JAVA" = "" -a "$JAVA_HOME" != "" ]	460	if [ "$JAVA" = "" -a "$JAVA_HOME" != "" ]
468	then	461	then
469	  if [ ! -z "$JAVACMD" ] 	462	  if [ ! -z "$JAVACMD" ] 
470	  then	463	  then
471	     JAVA="$JAVACMD" 	464	     JAVA="$JAVACMD" 
472	  else	465	  else
473	    [ -x $JAVA_HOME/bin/jre -a ! -d $JAVA_HOME/bin/jre ] && JAVA=$JAVA_HOME/bin/jre	466	    [ -x $JAVA_HOME/bin/jre -a ! -d $JAVA_HOME/bin/jre ] && JAVA=$JAVA_HOME/bin/jre
474	    [ -x $JAVA_HOME/bin/java -a ! -d $JAVA_HOME/bin/java ] && JAVA=$JAVA_HOME/bin/java	467	    [ -x $JAVA_HOME/bin/java -a ! -d $JAVA_HOME/bin/java ] && JAVA=$JAVA_HOME/bin/java
475	  fi	468	  fi
476	fi






sent 5322 bytes  received 2749389787 bytes  2071107.43 bytes/sec
total size is 102068147403  speedup is 37.12
rsync warning: some files vanished before they could be transferred (code 24) at main.c(1532) [generator=3.0.6]
