Logging initialized using configuration in jar:file:/data/cloudera/parcels/CDH-4.4.0-1.cdh4.4.0.p0.3                                                                                          9/lib/hive/lib/hive-common-0.10.0-cdh4.4.0.jar!/hive-log4j.properties
Hive history file=/tmp/mapred/hive_job_log_c68f9cef-133c-4b20-9d35-f525215f05d5_574756041.txt
OK
Time taken: 1.573 seconds
Warning: Value had a \n character in it.
OK
Time taken: 0.338 seconds
OK
Time taken: 0.182 seconds
Total MapReduce jobs = 16
Ended Job = 1154562142, job is filtered out (removed at runtime).
Ended Job = -1984904927, job is filtered out (removed at runtime).
setting HADOOP_USER_NAME        mapred
WARNING: org.apache.hadoop.metrics.jvm.EventCounter is deprecated. Please use org.apache.hadoop.log.                                                                                          metrics.EventCounter in all the log4j.properties files.
Execution log at: /tmp/mapred/mapred_20131028104949_71fd7742-1be3-427a-8cd4-5098966580f3.log
2013-10-28 10:49:10     Starting to launch local task to process map join;      maximum memory = 954                                                                                          466304
2013-10-28 10:49:13     Processing rows:        200000  Hashtable size: 199999  Memory usage:   9471                                                                                          6208    rate:   0.099
2013-10-28 10:49:15     Processing rows:        300000  Hashtable size: 299999  Memory usage:   1387                                                                                          60584   rate:   0.145
2013-10-28 10:49:18     Processing rows:        400000  Hashtable size: 399999  Memory usage:   1957                                                                                          58208   rate:   0.205
2013-10-28 10:49:21     Processing rows:        500000  Hashtable size: 499999  Memory usage:   2329                                                                                          42232   rate:   0.244
2013-10-28 10:49:24     Processing rows:        600000  Hashtable size: 599999  Memory usage:   2901                                                                                          19128   rate:   0.304
2013-10-28 10:49:29     Processing rows:        700000  Hashtable size: 699999  Memory usage:   3340                                                                                          51896   rate:   0.35
2013-10-28 10:49:39     Processing rows:        800000  Hashtable size: 799999  Memory usage:   4042                                                                                          81480   rate:   0.424
2013-10-28 10:49:49     Processing rows:        900000  Hashtable size: 899999  Memory usage:   4456                                                                                          62360   rate:   0.467
2013-10-28 10:49:55     Processing rows:        1000000 Hashtable size: 999999  Memory usage:   5162                                                                                          78432   rate:   0.541
2013-10-28 10:50:10     Processing rows:        1100000 Hashtable size: 1099999 Memory usage:   5559                                                                                          93176   rate:   0.583
2013-10-28 10:50:17     Processing rows:        1200000 Hashtable size: 1199999 Memory usage:   6253                                                                                          31888   rate:   0.655
2013-10-28 10:50:25     Processing rows:        1300000 Hashtable size: 1299999 Memory usage:   6774                                                                                          69080   rate:   0.71
2013-10-28 10:50:33     Processing rows:        1400000 Hashtable size: 1399999 Memory usage:   7617                                                                                          95160   rate:   0.798
2013-10-28 10:50:43     Processing rows:        1483946 Hashtable size: 1483946 Memory usage:   7927                                                                                          48440   rate:   0.831
2013-10-28 10:50:43     Dump the hashtable into file: file:/tmp/mapred/hive_2013-10-28_10-48-55_081_                                                                                          5815995268854053814-1/-local-10022/HashTable-Stage-25/MapJoin-mapfile80--.hashtable
2013-10-28 10:51:18     Upload 1 File to: file:/tmp/mapred/hive_2013-10-28_10-48-55_081_581599526885                                                                                          4053814-1/-local-10022/HashTable-Stage-25/MapJoin-mapfile80--.hashtable File size: 134392852
2013-10-28 10:51:18     End of local task; Time Taken: 128.575 sec.
Execution completed successfully
Mapred Local Task Succeeded . Convert the Join into MapJoin
Mapred Local Task Succeeded . Convert the Join into MapJoin
setting HADOOP_USER_NAME        mapred
WARNING: org.apache.hadoop.metrics.jvm.EventCounter is deprecated. Please use org.apache.hadoop.log.                                                                                          metrics.EventCounter in all the log4j.properties files.
Execution log at: /tmp/mapred/mapred_20131028104949_71fd7742-1be3-427a-8cd4-5098966580f3.log
2013-10-28 10:51:21     Starting to launch local task to process map join;      maximum memory = 954                                                                                          466304
2013-10-28 10:51:24     Processing rows:        200000  Hashtable size: 199999  Memory usage:   9472                                                                                          3752    rate:   0.099
2013-10-28 10:51:26     Processing rows:        300000  Hashtable size: 299999  Memory usage:   1387                                                                                          60640   rate:   0.145
2013-10-28 10:51:28     Processing rows:        400000  Hashtable size: 399999  Memory usage:   1957                                                                                          84760   rate:   0.205
2013-10-28 10:51:32     Processing rows:        500000  Hashtable size: 499999  Memory usage:   2329                                                                                          42288   rate:   0.244
2013-10-28 10:51:35     Processing rows:        600000  Hashtable size: 599999  Memory usage:   2901                                                                                          26616   rate:   0.304
2013-10-28 10:51:39     Processing rows:        700000  Hashtable size: 699999  Memory usage:   3340                                                                                          51952   rate:   0.35
2013-10-28 10:51:44     Processing rows:        800000  Hashtable size: 799999  Memory usage:   4042                                                                                          81536   rate:   0.424
2013-10-28 10:51:50     Processing rows:        900000  Hashtable size: 899999  Memory usage:   4456                                                                                          80584   rate:   0.467
2013-10-28 10:51:55     Processing rows:        1000000 Hashtable size: 999999  Memory usage:   5031                                                                                          36688   rate:   0.527
2013-10-28 10:52:06     Processing rows:        1100000 Hashtable size: 1099999 Memory usage:   5559                                                                                          92480   rate:   0.583
2013-10-28 10:52:13     Processing rows:        1200000 Hashtable size: 1199999 Memory usage:   6253                                                                                          31160   rate:   0.655
2013-10-28 10:52:21     Processing rows:        1300000 Hashtable size: 1299999 Memory usage:   6774                                                                                          70064   rate:   0.71
2013-10-28 10:52:29     Processing rows:        1400000 Hashtable size: 1399999 Memory usage:   7621                                                                                          08608   rate:   0.798
2013-10-28 10:52:39     Processing rows:        1483946 Hashtable size: 1483946 Memory usage:   7927                                                                                          50136   rate:   0.831
2013-10-28 10:52:39     Dump the hashtable into file: file:/tmp/mapred/hive_2013-10-28_10-48-55_081_                                                                                          5815995268854053814-1/-local-10016/HashTable-Stage-19/MapJoin-mapfile40--.hashtable
2013-10-28 10:53:16     Upload 1 File to: file:/tmp/mapred/hive_2013-10-28_10-48-55_081_581599526885                                                                                          4053814-1/-local-10016/HashTable-Stage-19/MapJoin-mapfile40--.hashtable File size: 134392852
2013-10-28 10:53:16     End of local task; Time Taken: 115.913 sec.
Execution completed successfully
Mapred Local Task Succeeded . Convert the Join into MapJoin
Mapred Local Task Succeeded . Convert the Join into MapJoin
Launching Job 3 out of 16
Launching Job 4 out of 16
Number of reduce tasks is set to 0 since there's no reduce operator
Number of reduce tasks is set to 0 since there's no reduce operator
Starting Job = job_201310251807_4905, Tracking URL = http://cdh-master01.cdh.local:50030/jobdetails.                                                                                          jsp?jobid=job_201310251807_4905
Kill Command = /data/cloudera/parcels/CDH-4.4.0-1.cdh4.4.0.p0.39/lib/hadoop/bin/hadoop job  -kill jo                                                                                          b_201310251807_4905
Starting Job = job_201310251807_4904, Tracking URL = http://cdh-master01.cdh.local:50030/jobdetails.                                                                                          jsp?jobid=job_201310251807_4904
Kill Command = /data/cloudera/parcels/CDH-4.4.0-1.cdh4.4.0.p0.39/lib/hadoop/bin/hadoop job  -kill jo                                                                                          b_201310251807_4904
Hadoop job information for Stage-19: number of mappers: 32; number of reducers: 0
Hadoop job information for Stage-25: number of mappers: 32; number of reducers: 0
2013-10-28 10:53:33,102 Stage-25 map = 0%,  reduce = 0%
2013-10-28 10:53:33,102 Stage-19 map = 0%,  reduce = 0%
2013-10-28 10:53:44,189 Stage-19 map = 1%,  reduce = 0%
2013-10-28 10:53:47,213 Stage-25 map = 1%,  reduce = 0%
2013-10-28 10:53:48,215 Stage-19 map = 3%,  reduce = 0%
2013-10-28 10:53:48,224 Stage-25 map = 3%,  reduce = 0%
2013-10-28 10:53:49,227 Stage-19 map = 4%,  reduce = 0%
2013-10-28 10:53:50,240 Stage-19 map = 5%,  reduce = 0%
2013-10-28 10:53:50,254 Stage-25 map = 5%,  reduce = 0%
2013-10-28 10:54:50,696 Stage-25 map = 5%,  reduce = 0%
2013-10-28 10:54:50,700 Stage-19 map = 5%,  reduce = 0%, Cumulative CPU 65.53 sec
2013-10-28 10:54:51,822 Stage-19 map = 5%,  reduce = 0%, Cumulative CPU 61.99 sec
2013-10-28 10:54:52,727 Stage-25 map = 100%,  reduce = 100%
Ended Job = job_201310251807_4904 with errors
Error during job, obtaining debugging information...
Job Tracking URL: http://cdh-master01.cdh.local:50030/jobdetails.jsp?jobid=job_201310251807_4904
Examining task ID: task_201310251807_4904_m_000033 (and more) from job job_201310251807_4904
2013-10-28 10:54:52,839 Stage-19 map = 4%,  reduce = 0%
Examining task ID: task_201310251807_4904_m_000000 (and more) from job job_201310251807_4904
Unable to retrieve URL for Hadoop Task logs. Does not contain a valid host:port authority: logicaljt

Task with the most failures(1):
-----
Task ID:
  task_201310251807_4904_m_000011

-----
Diagnostic Messages for this Task:

FAILED: Execution Error, return code 2 from org.apache.hadoop.hive.ql.exec.MapRedTask
MapReduce Jobs Launched:
Job 0: Map: 32   HDFS Read: 0 HDFS Write: 0 FAIL
Total MapReduce CPU Time Spent: 0 msec
